Detector,Reporter,Start,End,Threshold
HPRT1_JOE,JOE,(Auto),(Auto),0.2
Well,SampleName,Start,End,Ct
1,HPMEC_PC_CTRL_A,5,23,34.0091
2,HPMEC_PC_CTRL_A,5,22,34.6512
3,HPMEC_PC_CTRL_A,5,23,28.4334
4,HPMEC_PC_CTRL_A,5,22,28.0573
5,HPMEC_PC_CTRL_A,5,22,28.4129
6,HPMEC_PC_CTRL_A,5,22,28.1985
7,HPMEC_PC_HIST_A,5,25,36.5818
8,HPMEC_PC_HIST_A,5,24,35.9211
9,HPMEC_PC_HIST_A,5,22,28.2087
10,HPMEC_PC_HIST_A,5,23,28.4581
11,HPMEC_PC_HIST_A,5,23,28.5912
12,HPMEC_PC_HIST_A,5,23,28.6224
13,HPMEC_PC_CTRL_B,5,23,33.6669
14,HPMEC_PC_CTRL_B,5,24,34.5957
15,HPMEC_PC_CTRL_B,5,22,28.1345
16,HPMEC_PC_CTRL_B,5,22,28.1885
17,HPMEC_PC_CTRL_B,5,22,28.2194
18,HPMEC_PC_CTRL_B,5,22,28.3354
19,HPMEC_PC_HIST_B,5,24,34.5719
20,HPMEC_PC_HIST_B,5,23,34.8573
21,HPMEC_PC_HIST_B,5,22,27.9939
22,HPMEC_PC_HIST_B,5,22,28.0540
23,HPMEC_PC_HIST_B,5,22,27.9639
24,HPMEC_PC_HIST_B,5,22,28.2366
25,HPMEC_PC_LPS_A,5,23,33.4295
26,HPMEC_PC_LPS_A,5,23,33.3522
27,HPMEC_PC_LPS_A,5,23,28.6454
28,HPMEC_PC_LPS_A,5,23,28.4160
29,HPMEC_PC_LPS_A,5,23,28.3409
30,HPMEC_PC_LPS_A,5,23,28.4367
31,HPMEC_PC_FORSK_A,5,23,33.9414
32,HPMEC_PC_FORSK_A,5,23,32.7719
33,HPMEC_PC_FORSK_A,5,22,28.3089
34,HPMEC_PC_FORSK_A,5,22,28.0034
35,HPMEC_PC_FORSK_A,5,22,28.3410
36,HPMEC_PC_FORSK_A,5,22,28.0393
37,HPMEC_PC_LPS_B,5,24,36.0702
38,HPMEC_PC_LPS_B,5,23,33.5785
39,HPMEC_PC_LPS_B,5,23,28.2914
40,HPMEC_PC_LPS_B,5,23,28.2042
41,HPMEC_PC_LPS_B,5,22,28.2688
42,HPMEC_PC_LPS_B,5,23,28.5534
43,HPMEC_PC_FORSK_B,5,23,33.0136
44,HPMEC_PC_FORSK_B,5,24,33.6003
45,HPMEC_PC_FORSK_B,5,22,28.2677
46,HPMEC_PC_FORSK_B,5,22,28.1900
47,HPMEC_PC_FORSK_B,5,22,27.9957
48,HPMEC_PC_FORSK_B,5,22,28.1706
49,HPMEC_PC_IL6_A,5,23,33.2453
50,HPMEC_PC_IL6_A,5,23,32.9750
51,HPMEC_PC_IL6_A,5,23,28.8350
52,HPMEC_PC_IL6_A,5,23,28.3268
53,HPMEC_PC_IL6_A,5,22,28.2310
54,HPMEC_PC_IL6_A,5,22,28.1487
61,HPMEC_PC_IL6_B,5,25,36.2128
62,HPMEC_PC_IL6_B,5,25,36.1015
63,HPMEC_PC_IL6_B,5,23,28.9481
64,HPMEC_PC_IL6_B,5,23,29.1374
65,HPMEC_PC_IL6_B,5,23,29.0342
66,HPMEC_PC_IL6_B,5,23,29.1091
73,HPMEC_PC_PMA_A,5,23,34.6128
74,HPMEC_PC_PMA_A,5,23,34.1694
75,HPMEC_PC_PMA_A,5,23,28.6336
76,HPMEC_PC_PMA_A,5,23,28.2398
77,HPMEC_PC_PMA_A,5,22,28.3219
78,HPMEC_PC_PMA_A,5,22,28.1924
85,HPMEC_PC_PMA_B,5,24,34.0123
86,HPMEC_PC_PMA_B,5,23,34.3466
87,HPMEC_PC_PMA_B,5,22,28.2628
88,HPMEC_PC_PMA_B,5,22,28.1700
89,HPMEC_PC_PMA_B,5,22,28.1221
90,HPMEC_PC_PMA_B,5,22,28.3678
Detector,Reporter,Start,End,Threshold
AVPR2_FAM,FAM,(Auto),(Auto),0.2
Well,SampleName,Start,End,Ct
1,HPMEC_PC_CTRL_A,5,49,
2,HPMEC_PC_CTRL_A,5,49,
7,HPMEC_PC_HIST_A,5,49,
8,HPMEC_PC_HIST_A,5,49,
13,HPMEC_PC_CTRL_B,5,49,
14,HPMEC_PC_CTRL_B,5,49,
19,HPMEC_PC_HIST_B,5,49,
20,HPMEC_PC_HIST_B,5,49,
25,HPMEC_PC_LPS_A,5,49,
26,HPMEC_PC_LPS_A,5,49,
31,HPMEC_PC_FORSK_A,5,49,
32,HPMEC_PC_FORSK_A,5,49,
37,HPMEC_PC_LPS_B,5,49,
38,HPMEC_PC_LPS_B,5,49,
43,HPMEC_PC_FORSK_B,5,49,
44,HPMEC_PC_FORSK_B,5,49,
49,HPMEC_PC_IL6_A,5,49,
50,HPMEC_PC_IL6_A,5,49,
61,HPMEC_PC_IL6_B,5,49,
62,HPMEC_PC_IL6_B,5,49,
73,HPMEC_PC_PMA_A,5,49,
74,HPMEC_PC_PMA_A,5,49,
85,HPMEC_PC_PMA_B,5,49,
86,HPMEC_PC_PMA_B,5,49,
Detector,Reporter,Start,End,Threshold
GAPDH_CY3,CY3,(Auto),(Auto),0.2
Well,SampleName,Start,End,Ct
1,HPMEC_PC_CTRL_A,5,19,
2,HPMEC_PC_CTRL_A,5,18,
7,HPMEC_PC_HIST_A,5,18,
8,HPMEC_PC_HIST_A,5,19,
13,HPMEC_PC_CTRL_B,5,19,
14,HPMEC_PC_CTRL_B,5,19,
19,HPMEC_PC_HIST_B,5,18,
20,HPMEC_PC_HIST_B,5,18,
25,HPMEC_PC_LPS_A,5,19,
26,HPMEC_PC_LPS_A,5,19,
31,HPMEC_PC_FORSK_A,5,18,
32,HPMEC_PC_FORSK_A,5,18,
37,HPMEC_PC_LPS_B,5,18,
38,HPMEC_PC_LPS_B,5,19,
43,HPMEC_PC_FORSK_B,5,18,
44,HPMEC_PC_FORSK_B,5,18,
49,HPMEC_PC_IL6_A,5,19,
50,HPMEC_PC_IL6_A,5,19,
61,HPMEC_PC_IL6_B,5,19,
62,HPMEC_PC_IL6_B,5,20,
73,HPMEC_PC_PMA_A,5,19,
74,HPMEC_PC_PMA_A,5,18,
85,HPMEC_PC_PMA_B,5,18,
86,HPMEC_PC_PMA_B,5,18,
Detector,Reporter,Start,End,Threshold
PECAM1_CY5,CY5,(Auto),(Auto),0.2
Well,SampleName,Start,End,Ct
1,HPMEC_PC_CTRL_A,5,20,
2,HPMEC_PC_CTRL_A,5,20,
7,HPMEC_PC_HIST_A,5,20,
8,HPMEC_PC_HIST_A,5,20,
13,HPMEC_PC_CTRL_B,5,20,
14,HPMEC_PC_CTRL_B,5,20,
19,HPMEC_PC_HIST_B,5,20,
20,HPMEC_PC_HIST_B,5,20,
25,HPMEC_PC_LPS_A,5,20,
26,HPMEC_PC_LPS_A,5,20,
31,HPMEC_PC_FORSK_A,5,20,
32,HPMEC_PC_FORSK_A,5,20,
37,HPMEC_PC_LPS_B,5,20,
38,HPMEC_PC_LPS_B,5,20,
43,HPMEC_PC_FORSK_B,5,20,
44,HPMEC_PC_FORSK_B,5,20,
49,HPMEC_PC_IL6_A,5,20,
50,HPMEC_PC_IL6_A,5,20,
61,HPMEC_PC_IL6_B,5,20,
62,HPMEC_PC_IL6_B,5,20,
73,HPMEC_PC_PMA_A,5,20,
74,HPMEC_PC_PMA_A,5,20,
85,HPMEC_PC_PMA_B,5,20,
86,HPMEC_PC_PMA_B,5,20,
Detector,Reporter,Start,End,Threshold
F8_FAM,FAM,(Auto),(Auto),0.2
Well,SampleName,Start,End,Ct
3,HPMEC_PC_CTRL_A,5,31,39.1264
4,HPMEC_PC_CTRL_A,5,31,37.8449
9,HPMEC_PC_HIST_A,5,34,47.8045
10,HPMEC_PC_HIST_A,5,32,39.8092
15,HPMEC_PC_CTRL_B,5,32,38.4938
16,HPMEC_PC_CTRL_B,5,32,38.0366
21,HPMEC_PC_HIST_B,5,30,36.8155
22,HPMEC_PC_HIST_B,5,33,39.1583
27,HPMEC_PC_LPS_A,5,32,37.8643
28,HPMEC_PC_LPS_A,5,32,38.3756
33,HPMEC_PC_FORSK_A,5,31,37.6555
34,HPMEC_PC_FORSK_A,5,32,37.9720
39,HPMEC_PC_LPS_B,5,31,37.7190
40,HPMEC_PC_LPS_B,5,32,37.9433
45,HPMEC_PC_FORSK_B,5,31,37.5637
46,HPMEC_PC_FORSK_B,5,30,36.5552
51,HPMEC_PC_IL6_A,5,32,38.0381
52,HPMEC_PC_IL6_A,5,31,37.7295
63,HPMEC_PC_IL6_B,5,32,40.8745
64,HPMEC_PC_IL6_B,5,31,37.9738
75,HPMEC_PC_PMA_A,5,33,38.8901
76,HPMEC_PC_PMA_A,5,32,38.0997
87,HPMEC_PC_PMA_B,5,31,38.6494
88,HPMEC_PC_PMA_B,5,31,37.1983
Detector,Reporter,Start,End,Threshold
TEK_CY5,CY5,(Auto),(Auto),0.2
Well,SampleName,Start,End,Ct
3,HPMEC_PC_CTRL_A,5,49,
4,HPMEC_PC_CTRL_A,5,49,
9,HPMEC_PC_HIST_A,5,49,
10,HPMEC_PC_HIST_A,5,49,
15,HPMEC_PC_CTRL_B,5,49,
16,HPMEC_PC_CTRL_B,5,49,
21,HPMEC_PC_HIST_B,5,49,
22,HPMEC_PC_HIST_B,5,49,
27,HPMEC_PC_LPS_A,5,49,
28,HPMEC_PC_LPS_A,5,49,
33,HPMEC_PC_FORSK_A,5,49,
34,HPMEC_PC_FORSK_A,5,49,
39,HPMEC_PC_LPS_B,5,49,
40,HPMEC_PC_LPS_B,5,49,
45,HPMEC_PC_FORSK_B,5,49,
46,HPMEC_PC_FORSK_B,5,49,
51,HPMEC_PC_IL6_A,5,49,
52,HPMEC_PC_IL6_A,5,49,
63,HPMEC_PC_IL6_B,5,49,
64,HPMEC_PC_IL6_B,5,49,
75,HPMEC_PC_PMA_A,5,49,
76,HPMEC_PC_PMA_A,5,49,
87,HPMEC_PC_PMA_B,5,49,
88,HPMEC_PC_PMA_B,5,49,
Detector,Reporter,Start,End,Threshold
vWF_FAM,FAM,(Auto),(Auto),0.2
Well,SampleName,Start,End,Ct
5,HPMEC_PC_CTRL_A,5,21,25.8989
6,HPMEC_PC_CTRL_A,5,21,25.7471
11,HPMEC_PC_HIST_A,5,20,25.4238
12,HPMEC_PC_HIST_A,5,20,25.4419
17,HPMEC_PC_CTRL_B,5,20,25.5651
18,HPMEC_PC_CTRL_B,5,21,26.0027
23,HPMEC_PC_HIST_B,5,20,24.7575
24,HPMEC_PC_HIST_B,5,20,24.9261
29,HPMEC_PC_LPS_A,5,20,25.3989
30,HPMEC_PC_LPS_A,5,20,25.4429
35,HPMEC_PC_FORSK_A,5,20,25.3244
36,HPMEC_PC_FORSK_A,5,20,25.2063
41,HPMEC_PC_LPS_B,5,20,25.4343
42,HPMEC_PC_LPS_B,5,20,25.6563
47,HPMEC_PC_FORSK_B,5,20,25.2197
48,HPMEC_PC_FORSK_B,5,20,25.3989
53,HPMEC_PC_IL6_A,5,20,25.0538
54,HPMEC_PC_IL6_A,5,20,25.0306
65,HPMEC_PC_IL6_B,5,21,26.0893
66,HPMEC_PC_IL6_B,5,21,26.0419
77,HPMEC_PC_PMA_A,5,20,25.4744
78,HPMEC_PC_PMA_A,5,20,25.4093
89,HPMEC_PC_PMA_B,5,20,25.2942
90,HPMEC_PC_PMA_B,5,20,25.4818
Detector,Reporter,Start,End,Threshold
CDH5_CY5,CY5,(Auto),(Auto),0.2
Well,SampleName,Start,End,Ct
5,HPMEC_PC_CTRL_A,5,20,27.4373
6,HPMEC_PC_CTRL_A,5,20,26.9656
11,HPMEC_PC_HIST_A,5,20,27.2918
12,HPMEC_PC_HIST_A,5,20,27.3554
17,HPMEC_PC_CTRL_B,5,20,26.9191
18,HPMEC_PC_CTRL_B,5,20,27.0925
23,HPMEC_PC_HIST_B,5,20,26.5159
24,HPMEC_PC_HIST_B,5,20,27.0806
29,HPMEC_PC_LPS_A,5,20,26.7098
30,HPMEC_PC_LPS_A,5,20,26.8505
35,HPMEC_PC_FORSK_A,5,20,26.9827
36,HPMEC_PC_FORSK_A,5,20,26.5751
41,HPMEC_PC_LPS_B,5,20,26.5139
42,HPMEC_PC_LPS_B,5,20,27.0450
47,HPMEC_PC_FORSK_B,5,20,26.1592
48,HPMEC_PC_FORSK_B,5,20,26.5146
53,HPMEC_PC_IL6_A,5,20,26.3886
54,HPMEC_PC_IL6_A,5,20,26.4997
65,HPMEC_PC_IL6_B,5,20,27.5652
66,HPMEC_PC_IL6_B,5,21,27.9895
77,HPMEC_PC_PMA_A,5,20,26.9932
78,HPMEC_PC_PMA_A,5,20,26.8452
89,HPMEC_PC_PMA_B,5,20,27.0134
90,HPMEC_PC_PMA_B,5,20,27.3654
