Detector,Reporter,Start,End,Threshold
HPRT1_JOE,JOE,(Auto),(Auto),0.2
Well,SampleName,Start,End,Ct
1,HCMEC_CTRL_A,5,22,32.0192
2,HCMEC_CTRL_A,5,21,30.8331
3,HCMEC_CTRL_A,5,21,26.1657
4,HCMEC_CTRL_A,5,21,26.5746
5,HCMEC_CTRL_A,5,21,26.6400
6,HCMEC_CTRL_A,5,21,26.6898
7,HCMEC_PMA_A,5,21,30.7743
8,HCMEC_PMA_A,5,23,32.6649
9,HCMEC_PMA_A,5,21,26.9025
10,HCMEC_PMA_A,5,21,27.0556
11,HCMEC_PMA_A,5,21,27.3575
12,HCMEC_PMA_A,5,21,26.6694
13,HCMEC_CTRL_B,5,22,32.6956
14,HCMEC_CTRL_B,5,22,31.5811
15,HCMEC_CTRL_B,5,21,26.7781
16,HCMEC_CTRL_B,5,21,26.2940
17,HCMEC_CTRL_B,5,21,26.7703
18,HCMEC_CTRL_B,5,21,26.7517
19,HCMEC_PMA_B,5,21,29.8639
20,HCMEC_PMA_B,5,22,31.7194
21,HCMEC_PMA_B,5,21,26.8355
22,HCMEC_PMA_B,5,21,26.7170
23,HCMEC_PMA_B,5,21,27.4924
24,HCMEC_PMA_B,5,21,26.7323
25,HCMEC_LPS_A,5,22,32.5572
26,HCMEC_LPS_A,5,21,30.6806
27,HCMEC_LPS_A,5,21,26.4376
28,HCMEC_LPS_A,5,21,26.4787
29,HCMEC_LPS_A,5,21,26.3199
30,HCMEC_LPS_A,5,21,26.3217
31,HCMEC_HIST_A,5,21,30.9144
32,HCMEC_HIST_A,5,21,30.2295
33,HCMEC_HIST_A,5,21,26.5667
34,HCMEC_HIST_A,5,21,26.5244
35,HCMEC_HIST_A,5,21,26.4768
36,HCMEC_HIST_A,5,21,26.6460
37,HCMEC_LPS_B,5,22,32.7540
38,HCMEC_LPS_B,5,21,30.0752
39,HCMEC_LPS_B,5,21,26.6682
40,HCMEC_LPS_B,5,21,26.6711
41,HCMEC_LPS_B,5,21,26.7160
42,HCMEC_LPS_B,5,21,26.4559
43,HCMEC_HIST_B,5,21,30.3042
44,HCMEC_HIST_B,5,21,30.2128
45,HCMEC_HIST_B,5,21,26.8372
46,HCMEC_HIST_B,5,21,26.6523
47,HCMEC_HIST_B,5,21,26.6016
48,HCMEC_HIST_B,5,21,26.7574
49,HCMEC_IL6_A,5,22,31.8771
50,HCMEC_IL6_A,5,21,29.3400
51,HCMEC_IL6_A,5,21,26.8234
52,HCMEC_IL6_A,5,21,26.8705
53,HCMEC_IL6_A,5,21,26.7242
54,HCMEC_IL6_A,5,21,26.9098
55,HCMEC_FORSK_A,5,21,29.5211
56,HCMEC_FORSK_A,5,22,31.4437
57,HCMEC_FORSK_A,5,21,26.9561
58,HCMEC_FORSK_A,5,21,26.8148
59,HCMEC_FORSK_A,5,21,26.9201
60,HCMEC_FORSK_A,5,21,26.9974
61,HCMEC_IL6_B,5,22,32.1485
62,HCMEC_IL6_B,5,21,28.8850
63,HCMEC_IL6_B,5,21,26.6054
64,HCMEC_IL6_B,5,21,26.6990
65,HCMEC_IL6_B,5,21,26.6973
66,HCMEC_IL6_B,5,21,26.5644
67,HCMEC_FORSK_B,5,21,28.4262
68,HCMEC_FORSK_B,5,21,29.7779
69,HCMEC_FORSK_B,5,21,26.5028
70,HCMEC_FORSK_B,5,21,26.4125
71,HCMEC_FORSK_B,5,21,26.9805
72,HCMEC_FORSK_B,5,21,26.2916
Detector,Reporter,Start,End,Threshold
AVPR2_FAM,FAM,(Auto),(Auto),0.2
Well,SampleName,Start,End,Ct
1,HCMEC_CTRL_A,5,49,
2,HCMEC_CTRL_A,5,49,
7,HCMEC_PMA_A,5,49,
8,HCMEC_PMA_A,5,49,
13,HCMEC_CTRL_B,5,49,
14,HCMEC_CTRL_B,5,49,
19,HCMEC_PMA_B,5,49,
20,HCMEC_PMA_B,5,49,
25,HCMEC_LPS_A,5,49,
26,HCMEC_LPS_A,5,49,
31,HCMEC_HIST_A,5,49,
32,HCMEC_HIST_A,5,49,
37,HCMEC_LPS_B,5,49,
38,HCMEC_LPS_B,5,49,
43,HCMEC_HIST_B,5,49,
44,HCMEC_HIST_B,5,49,
49,HCMEC_IL6_A,5,49,
50,HCMEC_IL6_A,5,49,
55,HCMEC_FORSK_A,5,49,
56,HCMEC_FORSK_A,5,49,
61,HCMEC_IL6_B,5,49,
62,HCMEC_IL6_B,5,49,
67,HCMEC_FORSK_B,5,49,
68,HCMEC_FORSK_B,5,49,
Detector,Reporter,Start,End,Threshold
GAPDH_CY3,CY3,(Auto),(Auto),0.2
Well,SampleName,Start,End,Ct
1,HCMEC_CTRL_A,5,17,
2,HCMEC_CTRL_A,5,18,
7,HCMEC_PMA_A,5,18,
8,HCMEC_PMA_A,5,18,
13,HCMEC_CTRL_B,5,18,
14,HCMEC_CTRL_B,5,18,
19,HCMEC_PMA_B,5,17,
20,HCMEC_PMA_B,5,18,
25,HCMEC_LPS_A,5,17,
26,HCMEC_LPS_A,5,17,
31,HCMEC_HIST_A,5,17,
32,HCMEC_HIST_A,5,17,
37,HCMEC_LPS_B,5,18,
38,HCMEC_LPS_B,5,18,
43,HCMEC_HIST_B,5,18,
44,HCMEC_HIST_B,5,18,
49,HCMEC_IL6_A,5,18,
50,HCMEC_IL6_A,5,18,
55,HCMEC_FORSK_A,5,18,
56,HCMEC_FORSK_A,5,18,
61,HCMEC_IL6_B,5,18,
62,HCMEC_IL6_B,5,18,
67,HCMEC_FORSK_B,5,17,
68,HCMEC_FORSK_B,5,18,
Detector,Reporter,Start,End,Threshold
PECAM1_CY5,CY5,(Auto),(Auto),0.2
Well,SampleName,Start,End,Ct
1,HCMEC_CTRL_A,5,19,
2,HCMEC_CTRL_A,5,19,
7,HCMEC_PMA_A,5,19,43.0647
8,HCMEC_PMA_A,5,19,
13,HCMEC_CTRL_B,5,19,
14,HCMEC_CTRL_B,5,19,
19,HCMEC_PMA_B,5,19,32.9139
20,HCMEC_PMA_B,5,19,
25,HCMEC_LPS_A,5,19,
26,HCMEC_LPS_A,5,19,
31,HCMEC_HIST_A,5,19,
32,HCMEC_HIST_A,5,19,
37,HCMEC_LPS_B,5,19,
38,HCMEC_LPS_B,5,19,
43,HCMEC_HIST_B,5,19,
44,HCMEC_HIST_B,5,19,
49,HCMEC_IL6_A,5,20,
50,HCMEC_IL6_A,5,19,
55,HCMEC_FORSK_A,5,19,
56,HCMEC_FORSK_A,5,19,
61,HCMEC_IL6_B,5,19,
62,HCMEC_IL6_B,5,19,37.4586
67,HCMEC_FORSK_B,5,19,
68,HCMEC_FORSK_B,5,19,
Detector,Reporter,Start,End,Threshold
F8_FAM,FAM,(Auto),(Auto),0.2
Well,SampleName,Start,End,Ct
3,HCMEC_CTRL_A,5,30,36.8695
4,HCMEC_CTRL_A,5,31,36.9023
9,HCMEC_PMA_A,5,31,37.3095
10,HCMEC_PMA_A,5,30,37.2550
15,HCMEC_CTRL_B,5,31,37.1996
16,HCMEC_CTRL_B,5,31,37.6261
21,HCMEC_PMA_B,5,31,37.6496
22,HCMEC_PMA_B,5,31,37.9116
27,HCMEC_LPS_A,5,30,36.3723
28,HCMEC_LPS_A,5,30,35.9285
33,HCMEC_HIST_A,5,31,37.2520
34,HCMEC_HIST_A,5,31,36.3373
39,HCMEC_LPS_B,5,30,35.8008
40,HCMEC_LPS_B,5,30,36.5981
45,HCMEC_HIST_B,5,31,36.8654
46,HCMEC_HIST_B,5,31,36.9013
51,HCMEC_IL6_A,5,30,36.4391
52,HCMEC_IL6_A,5,31,36.6723
57,HCMEC_FORSK_A,5,31,36.6289
58,HCMEC_FORSK_A,5,31,36.8157
63,HCMEC_IL6_B,5,30,36.3638
64,HCMEC_IL6_B,5,31,37.1583
69,HCMEC_FORSK_B,5,30,36.1755
70,HCMEC_FORSK_B,5,30,35.9045
Detector,Reporter,Start,End,Threshold
TEK_CY5,CY5,(Auto),(Auto),0.2
Well,SampleName,Start,End,Ct
3,HCMEC_CTRL_A,5,49,
4,HCMEC_CTRL_A,5,49,
9,HCMEC_PMA_A,5,49,
10,HCMEC_PMA_A,5,49,
15,HCMEC_CTRL_B,5,49,
16,HCMEC_CTRL_B,5,49,
21,HCMEC_PMA_B,5,49,
22,HCMEC_PMA_B,5,49,
27,HCMEC_LPS_A,5,49,
28,HCMEC_LPS_A,5,49,
33,HCMEC_HIST_A,5,49,
34,HCMEC_HIST_A,5,49,
39,HCMEC_LPS_B,5,49,
40,HCMEC_LPS_B,5,49,
45,HCMEC_HIST_B,5,49,
46,HCMEC_HIST_B,5,49,
51,HCMEC_IL6_A,5,49,
52,HCMEC_IL6_A,5,49,
57,HCMEC_FORSK_A,5,49,
58,HCMEC_FORSK_A,5,49,
63,HCMEC_IL6_B,5,49,
64,HCMEC_IL6_B,5,49,
69,HCMEC_FORSK_B,5,49,
70,HCMEC_FORSK_B,5,49,
Detector,Reporter,Start,End,Threshold
vWF_FAM,FAM,(Auto),(Auto),0.2
Well,SampleName,Start,End,Ct
5,HCMEC_CTRL_A,5,21,25.9531
6,HCMEC_CTRL_A,5,21,26.0357
11,HCMEC_PMA_A,5,21,26.0082
12,HCMEC_PMA_A,5,20,25.4376
17,HCMEC_CTRL_B,5,21,26.1580
18,HCMEC_CTRL_B,5,21,26.1655
23,HCMEC_PMA_B,5,21,26.0509
24,HCMEC_PMA_B,5,20,25.4922
29,HCMEC_LPS_A,5,21,25.9058
30,HCMEC_LPS_A,5,21,25.8325
35,HCMEC_HIST_A,5,21,25.8772
36,HCMEC_HIST_A,5,21,26.0012
41,HCMEC_LPS_B,5,21,26.3322
42,HCMEC_LPS_B,5,21,26.1925
47,HCMEC_HIST_B,5,21,26.2033
48,HCMEC_HIST_B,5,21,26.3623
53,HCMEC_IL6_A,5,22,26.9386
54,HCMEC_IL6_A,5,22,27.0060
59,HCMEC_FORSK_A,5,21,26.4689
60,HCMEC_FORSK_A,5,21,26.5174
65,HCMEC_IL6_B,5,21,26.1646
66,HCMEC_IL6_B,5,21,26.1432
71,HCMEC_FORSK_B,5,21,26.4002
72,HCMEC_FORSK_B,5,21,26.0565
Detector,Reporter,Start,End,Threshold
CDH5_CY5,CY5,(Auto),(Auto),0.2
Well,SampleName,Start,End,Ct
5,HCMEC_CTRL_A,5,20,27.3745
6,HCMEC_CTRL_A,5,20,27.3929
11,HCMEC_PMA_A,5,20,28.5597
12,HCMEC_PMA_A,5,20,27.3128
17,HCMEC_CTRL_B,5,20,27.1134
18,HCMEC_CTRL_B,5,20,27.2364
23,HCMEC_PMA_B,5,20,28.6937
24,HCMEC_PMA_B,5,20,27.2346
29,HCMEC_LPS_A,5,20,26.6524
30,HCMEC_LPS_A,5,20,26.7854
35,HCMEC_HIST_A,5,20,26.5834
36,HCMEC_HIST_A,5,20,26.9685
41,HCMEC_LPS_B,5,20,26.8198
42,HCMEC_LPS_B,5,20,26.4645
47,HCMEC_HIST_B,5,20,26.8651
48,HCMEC_HIST_B,5,20,27.2543
53,HCMEC_IL6_A,5,20,26.9005
54,HCMEC_IL6_A,5,20,27.3936
59,HCMEC_FORSK_A,5,20,26.8452
60,HCMEC_FORSK_A,5,20,27.1818
65,HCMEC_IL6_B,5,20,27.0237
66,HCMEC_IL6_B,5,20,26.9504
71,HCMEC_FORSK_B,5,20,27.9464
72,HCMEC_FORSK_B,5,20,26.8399
